{
  "project_info": {
    "project_number": "294070342284",
    "firebase_url": "https://divineray-e79c7.firebaseio.com",
    "project_id": "divineray-e79c7",
    "storage_bucket": "divineray-e79c7.appspot.com"
  },
  "client": [
    {
      "client_info": {
        "mobilesdk_app_id": "1:294070342284:android:d50912d7030ae47d2c61a9",
        "android_client_info": {
          "package_name": "com.divineray.app"
        }
      },
      "oauth_client": [
        {
          "client_id": "294070342284-u83i1b37rdao674or22diarc3e4546lh.apps.googleusercontent.com",
          "client_type": 1,
          "android_info": {
            "package_name": "com.divineray.app",
            "certificate_hash": "7856dc058ab5ea6c9b616417c3e434b71e092541"
          }
        },
        {
          "client_id": "294070342284-p8mejkmkig0ptopkvto78lpmq23tu282.apps.googleusercontent.com",
          "client_type": 3
        }
      ],
      "api_key": [
        {
          "current_key": "AIzaSyAk2FOdTrtwZYc9N8s8wHqRz0vsMu6ZDp4"
        }
      ],
      "services": {
        "appinvite_service": {
          "other_platform_oauth_client": [
            {
              "client_id": "294070342284-p8mejkmkig0ptopkvto78lpmq23tu282.apps.googleusercontent.com",
              "client_type": 3
            }
          ]
        }
      }
    }
  ],
  "configuration_version": "1"
}